[
  {"id":7,
    "uaqs_card_deck_id" : 170,
    "uaqs_short_title" : "Official site",
    "uaqs_summary" : "Learn more about the mission",
    "uaqs_links": [
      {
      "url" : "http://www.asteroidmission.org",
      "title": "asteroidmission.org",
      "attributes": {
          "class": ""
          }
      }
    ],
    "uaqs_photo" : "uaqs_card_deck_spacecraft-assembly.png"
  },
  {"id":8,
    "uaqs_card_deck_id" : 170,
    "uaqs_short_title" : "#SpaceIsWildcatCountry",
    "uaqs_summary" : "Follow the conversation",
    "uaqs_links": [
      {
      "url" : "https://twitter.com/search?f=tweets&vertical=default&q=%23ToBennuAndBack%20OR%20%23SpaceIsWildcatCountry&src=typd&lang=en",
      "title": "Twitter",
      "attributes": {
          "class": ""
          }
      }
    ],
    "uaqs_photo" : "uaqs_card_deck_launch.png"
  },
  {"id":9,
    "uaqs_card_deck_id" : 170,
    "uaqs_short_title" : "Our team",
    "uaqs_summary" : "Want bio information, contacts, and more?",
    "uaqs_links": [
      {
      "url" : "content/flexible-page-people-grid",
      "title": "Meet the UA Team",
      "attributes": {
          "class": "btn btn-default btn-block"
          }
      }
    ],
    "uaqs_photo" : "uaqs_card_deck_spacecraft-assembled.png"
  },
  {"id":10,
    "uaqs_card_deck_id" : 180,
    "uaqs_short_title" : "Freshmen International",
    "uaqs_summary" : "International applicants who have not earned 24 or more transferable credits of post-secondary education at time of application.",
    "uaqs_links": [
      {
      "url" : "http://admissions.arizona.edu/deadlines/international/freshmen",
      "title": "Deadlines",
      "attributes": {
          "class": "card-link"
          }
      }
    ]
  },
  {"id":11,
    "uaqs_card_deck_id" : 180,
    "uaqs_short_title" : "Transfer International",
    "uaqs_summary" : "International applicants who have earned 24 or more transferable credits of post-secondary education at time of application.",
    "uaqs_links": [
      {
      "url" : "http://admissions.arizona.edu/deadlines/international/transfer",
      "title": "Deadlines",
      "attributes": {
          "class": "card-link"
          }
      }
    ]
  },
  {"id":12,
    "uaqs_card_deck_id" : 180,
    "uaqs_short_title" : "Conditional Admissions",
    "uaqs_summary" : "Applicants who do not meet the UA English proficiency can still be admitted after they gain proficiency through the nationally accredited Center for English as a Second Language (CESL).",
    "uaqs_links": [
      {
      "url" : "http://admissions.arizona.edu/deadlines/international/conditional-admissions",
      "title": "Deadlines",
      "attributes": {
          "class": "card-link"
          }
      }
    ]
  }
]